4 Sourcing data | POLS0008: Introduction to Quantitative Research Methods
…
Figure 4.3: Loading the tidyverse.

Note

After loading the tidyverse, you may get a short information messages to inform you which packages are attached to your R session and whether there are any conflicting functions. This simply means that there are functions that are named the same across the packages that you have loaded. For instance, when you load the tidyverse in a fresh R session, the tidyverse will tell you that two functions from the dplyr package (which is an integral part of the tidyverse package) mask the functionality of two functions of the stats package (which is part of base R). This simply means that if you now type in filter() you will get the dplyr functionality and not the functionality of the stats. This is very important information as both these functions do something completely different! You can still use the filter() function from the stats package but then you have to explicitly tell R that you want to use the function called filter() within the stats package: stats::filter().

Now that we have loaded the tidyverse we can continue with our data preparation. We will start by reading in the csv file that we created earlier, however, we will use the function read_csv() from the tidyverse instead of the function read.csv() from base R. The function read_csv returns a so-called tibble. Tibbles are data frames, but they tweak some older behaviours to make life a little easier.

# load csv file from working directory
midyear <- read_csv('midyear2019_v2.csv')

# inspect
midyear

## # A tibble: 7,201 x 7
##    msoa_code msoa_name    lad19_code lad19_name lad20_code lad20_name pop19
##    <chr>     <chr>        <chr>      <chr>      <chr>      <chr>      <chr>
##  1 E02002483 Hartlepool … E06000001  Hartlepool E06000001  Hartlepool 10 2…
##  2 E02002484 Hartlepool … E06000001  Hartlepool E06000001  Hartlepool 10 4…
##  3 E02002485 Hartlepool … E06000001  Hartlepool E06000001  Hartlepool 8 185
##  4 E02002487 Hartlepool … E06000001  Hartlepool E06000001  Hartlepool 5 277
##  5 E02002488 Hartlepool … E06000001  Hartlepool E06000001  Hartlepool 5 848
##  6 E02002489 Hartlepool … E06000001  Hartlepool E06000001  Hartlepool 7 730
##  7 E02002490 Hartlepool … E06000001  Hartlepool E06000001  Hartlepool 6 214
##  8 E02002491 Hartlepool … E06000001  Hartlepool E06000001  Hartlepool 6 454
##  9 E02002492 Hartlepool … E06000001  Hartlepool E06000001  Hartlepool 6 887
## 10 E02002493 Hartlepool … E06000001  Hartlepool E06000001  Hartlepool 6 702
## # … with 7,191 more rows
…
Note

Remember that when you encounter a function in a piece of R code that you have not seen before and you are wondering what it does that you can get access the documentation through ?name_of_function, e.g. ?mutate. For almost any R package, the documentation contains a list of arguments that the function takes, in which format the functions expects these arguments, as well as a set of usage examples.

Let’s have a look at two of the dplyr functions: select() and filter().

# select columns with the select function
# note that within dplyr we not use quotation marks to refer to columns
midyear_sel <- select(midyear,msoa_code,msoa_name,lad20_code,lad20_name,pop19)

# inspect
midyear_sel

## # A tibble: 7,201 x 5
##    msoa_code msoa_name      lad20_code lad20_name pop19 
##    <chr>     <chr>          <chr>      <chr>      <chr> 
##  1 E02002483 Hartlepool 001 E06000001  Hartlepool 10 261
##  2 E02002484 Hartlepool 002 E06000001  Hartlepool 10 449
##  3 E02002485 Hartlepool 003 E06000001  Hartlepool 8 185 
##  4 E02002487 Hartlepool 005 E06000001  Hartlepool 5 277 
##  5 E02002488 Hartlepool 006 E06000001  Hartlepool 5 848 
##  6 E02002489 Hartlepool 007 E06000001  Hartlepool 7 730 
##  7 E02002490 Hartlepool 008 E06000001  Hartlepool 6 214 
##  8 E02002491 Hartlepool 009 E06000001  Hartlepool 6 454 
##  9 E02002492 Hartlepool 010 E06000001  Hartlepool 6 887 
## 10 E02002493 Hartlepool 011 E06000001  Hartlepool 6 702 
## # … with 7,191 more rows

# filter rows with the filter function
# note that within dplyr we not use quotation marks to refer to columns
midyear_fil <- filter(midyear,lad20_name=='Leeds')

# inspect
midyear_fil

## # A tibble: 107 x 7
##    msoa_code msoa_name lad19_code lad19_name lad20_code lad20_name pop19
##    <chr>     <chr>     <chr>      <chr>      <chr>      <chr>      <chr>
##  1 E02002330 Leeds 001 E08000035  Leeds      E08000035  Leeds      6 572
##  2 E02002331 Leeds 002 E08000035  Leeds      E08000035  Leeds      7 029
##  3 E02002332 Leeds 003 E08000035  Leeds      E08000035  Leeds      6 143
##  4 E02002333 Leeds 004 E08000035  Leeds      E08000035  Leeds      7 637
##  5 E02002334 Leeds 005 E08000035  Leeds      E08000035  Leeds      7 110
##  6 E02002335 Leeds 006 E08000035  Leeds      E08000035  Leeds      7 500
##  7 E02002336 Leeds 007 E08000035  Leeds      E08000035  Leeds      6 596
##  8 E02002337 Leeds 008 E08000035  Leeds      E08000035  Leeds      7 388
##  9 E02002338 Leeds 009 E08000035  Leeds      E08000035  Leeds      6 817
## 10 E02002339 Leeds 010 E08000035  Leeds      E08000035  Leeds      5 351
## # … with 97 more rows
…
How can we get the same data frame with selected columns (midyear_sel) using the base R syntax we have been using in previous weeks?

How can we get the same data frame with filtered rows (midyear_fil) using the base R syntax we have been using in previous weeks?

With the mutate() function we can easily create new columns, so let’s try this function to see if we can create a new variable that contains all the data from pop19 in a numeric format.

# create a new variable named pop19_no space
# by replacing all white space with nothing using the "str_replace_all" function
midyear <- mutate(midyear, pop19_nospace=str_replace_all(pop19, pattern=' ', repl=''))

# inspect
midyear

## # A tibble: 7,201 x 8
##    msoa_code msoa_name lad19_code lad19_name lad20_code lad20_name pop19
##    <chr>     <chr>     <chr>      <chr>      <chr>      <chr>      <chr>
##  1 E02002483 Hartlepo… E06000001  Hartlepool E06000001  Hartlepool 10 2…
##  2 E02002484 Hartlepo… E06000001  Hartlepool E06000001  Hartlepool 10 4…
##  3 E02002485 Hartlepo… E06000001  Hartlepool E06000001  Hartlepool 8 185
##  4 E02002487 Hartlepo… E06000001  Hartlepool E06000001  Hartlepool 5 277
##  5 E02002488 Hartlepo… E06000001  Hartlepool E06000001  Hartlepool 5 848
##  6 E02002489 Hartlepo… E06000001  Hartlepool E06000001  Hartlepool 7 730
##  7 E02002490 Hartlepo… E06000001  Hartlepool E06000001  Hartlepool 6 214
##  8 E02002491 Hartlepo… E06000001  Hartlepool E06000001  Hartlepool 6 454
##  9 E02002492 Hartlepo… E06000001  Hartlepool E06000001  Hartlepool 6 887
## 10 E02002493 Hartlepo… E06000001  Hartlepool E06000001  Hartlepool 6 702
## # … with 7,191 more rows, and 1 more variable: pop19_nospace <chr>

# create a new variable named pop19_numeric
# by transorming the pop19_nospace variable using the "as.numeric" function
midyear <- mutate(midyear,pop19_numeric=as.numeric(pop19_nospace))

# inspect
midyear

## # A tibble: 7,201 x 9
##    msoa_code msoa_name lad19_code lad19_name lad20_code lad20_name pop19
##    <chr>     <chr>     <chr>      <chr>      <chr>      <chr>      <chr>
##  1 E02002483 Hartlepo… E06000001  Hartlepool E06000001  Hartlepool 10 2…
##  2 E02002484 Hartlepo… E06000001  Hartlepool E06000001  Hartlepool 10 4…
##  3 E02002485 Hartlepo… E06000001  Hartlepool E06000001  Hartlepool 8 185
##  4 E02002487 Hartlepo… E06000001  Hartlepool E06000001  Hartlepool 5 277
##  5 E02002488 Hartlepo… E06000001  Hartlepool E06000001  Hartlepool 5 848
##  6 E02002489 Hartlepo… E06000001  Hartlepool E06000001  Hartlepool 7 730
##  7 E02002490 Hartlepo… E06000001  Hartlepool E06000001  Hartlepool 6 214
##  8 E02002491 Hartlepo… E06000001  Hartlepool E06000001  Hartlepool 6 454
##  9 E02002492 Hartlepo… E06000001  Hartlepool E06000001  Hartlepool 6 887
## 10 E02002493 Hartlepo… E06000001  Hartlepool E06000001  Hartlepool 6 702
## # … with 7,191 more rows, and 2 more variables: pop19_nospace <chr>,
## #   pop19_numeric <dbl>
…
